Operation number;Start date;End date;Operation description;Thematic
AT1512-1;08/12/15;21/12/15;Noël (sélection 1) - Produits truffés;Enseigne
AT1512-2;22/12/15;18/01/16;PROMO MENSUELLE 1;Opération ou challenge mktg champ
AT1512-3;22/12/15;04/01/16;Noël (sélection 2) - Produits de la Mer + FG;Enseigne
AT1512-4;22/12/15;18/01/16;Challenge Alcool divers 1;Challenge
AT1512-5;22/12/15;18/01/16;Challenge Whisky 1;Challenge
AT1512-6;22/12/15;18/01/16;Challenge Cognac 1;Challenge
AT1512-7;22/12/15;18/01/16;Challenge Champ 1;Challenge
AT1512-8;22/12/15;15/02/16;Challenge Vin 1;Challenge
AT1512-9;29/12/15;18/01/16;PROMO MENSUELLE 1 bis;Opération ou challenge mktg champ
AT1512-10;29/12/15;18/01/16;PROMO INTER 1;Opération
AT1512-11;29/12/15;18/01/16;SDA MSD hiver 1;Magic Super Deals hiver
AT1512-12;29/12/15;15/02/16;S4 Nouvel an chinois;Nouvel An Chinois
AT1512-13;29/12/15;14/03/16;Challenge cigares 1;Challenge
AT1512-14;29/12/15;15/02/16;Challenge cigarillos 1;Challenge
AT1512-15;29/12/15;18/01/16;Glorifier Poland tabac 1;Animation
AT1601-1;02/01/16;03/01/16;WE GACO 1;Week-end d'Animation
AT1601-2;05/01/16;15/02/16;S4 Gourmand Nouvel an chinois;Nouvel An Chinois
AT1601-3;05/01/16;18/01/16;Les 2 Gourmands - Biscuits;Marque
AT1601-4;05/01/16;18/01/16;Semaine d'anim/challenge GACO 1;Challenge/animation
AT1601-5;09/01/16;10/01/16;WE GACO 2;Week-end d'Animation
AT1601-6;16/01/16;17/01/16;WE GACO 3;Week-end d'Animation
AT1601-7;19/01/16;15/02/16;PROMO MENSUELLE 2;Opération ou challenge mktg champ
AT1601-8;19/01/16;14/03/16;PROMO INTER 2;Opération
AT1601-9;19/01/16;15/02/16;SDA MSD hiver 2;Magic Super Deals hiver
AT1601-10;19/01/16;22/02/16;SDA Nouvel an chinois;Nouvel an chinois
AT1601-11;19/01/16;15/02/16;Angélina;Marque
AT1601-12;19/01/16;15/02/16;Challenge Alcool divers 2;Challenge
AT1601-13;19/01/16;15/02/16;Challenge Whisky 2;Challenge
AT1601-14;19/01/16;15/02/16;Challenge Cognac 2;Challenge
AT1601-15;19/01/16;14/03/16;Mise en avant SPP tabac 1;Animation
AT1601-16;19/01/16;29/02/16;HPP France tabac 1;Animation
AT1601-17;19/01/16;29/02/16;HPP Italy tabac 1;Animation
AT1601-18;19/01/16;15/02/16;Glorifier Poland tabac 2;Animation
AT1601-19;19/01/16;15/02/16;Challenge Champ 2;Challenge
AT1601-20;19/01/16;01/02/16;Semaine d'anim/challenge GACO 2;Challenge/animation
AT1601-21;23/01/16;24/01/16;WE GACO 4;Week-end d'Animation
AT1601-22;30/01/16;31/01/16;WE GACO 5;Week-end d'Animation
AT1602-1;02/02/16;15/02/16;Semaine d'anim/challenge GACO 3;Challenge/animation
AT1602-2;06/02/16;07/02/16;WE GACO 6;Week-end d'Animation
AT1602-3;13/02/16;14/02/16;WE GACO 7;Week-end d'Animation
AT1602-4;16/02/16;14/03/16;PROMO MENSUELLE 3;Opération ou challenge mktg champ
AT1602-5;16/02/16;14/03/16;SDA Paris;Paris
AT1602-6;16/02/16;11/04/16;SDA FAV printemps;FAV printemps
AT1602-7;16/02/16;14/03/16;S4 Paris;Paris
AT1602-8;16/02/16;14/03/16;S4 FAV Gourmand printemps;FAV printemps
AT1602-9;16/02/16;29/02/16;La Mère Poulard - Biscuits;Marque
AT1602-10;16/02/16;14/03/16;Challenge Alcool divers 3;Challenge
AT1602-11;16/02/16;14/03/16;Challenge Whisky 3;Challenge
AT1602-12;16/02/16;14/03/16;Challenge Cognac 3;Challenge
AT1602-13;16/02/16;14/03/16;Challenge cigarillos 2;Challenge
AT1602-14;16/02/16;14/03/16;Mise en avant Classic tabac 1;Animation
AT1602-15;16/02/16;14/03/16;Glorifier Poland tabac 3;Animation
AT1602-16;16/02/16;14/03/16;Challenge Champ 3;Challenge
AT1602-17;16/02/16;11/04/16;Challenge Vin 2;Challenge
AT1602-18;16/02/16;29/02/16;Semaine d'anim/challenge GACO 4;Challenge/animation
AT1602-19;20/02/16;21/02/16;WE GACO 8;Week-end d'Animation
AT1602-20;27/02/16;28/02/16;WE GACO 9;Week-end d'Animation
AT1603-1;01/03/16;28/03/16;Chapon - Chocolat;Marque
AT1603-2;01/03/16;11/04/16;HPP France tabac 2;Animation
AT1603-3;01/03/16;11/04/16;HPP Italy tabac 2;Animation
AT1603-4;01/03/16;14/03/16;Semaine d'anim/challenge GACO 5;Challenge/animation
AT1603-5;05/03/16;06/03/16;WE GACO 10;Week-end d'Animation
AT1603-6;12/03/16;13/03/16;WE GACO 11;Week-end d'Animation
AT1603-7;15/03/16;11/04/16;PROMO MENSUELLE 4;Opération ou challenge mktg champ
AT1603-8;15/03/16;09/05/16;PROMO INTER 3;Opération
AT1603-9;15/03/16;25/04/16;SDA Cherry Blossom;Cherry Blossom
AT1603-10;15/03/16;25/04/16;S4 Cherry Blossom;Cherry Blossom
AT1603-11;15/03/16;11/04/16;Foire aux vins;Noël
AT1603-12;15/03/16;11/04/16;Challenge Alcool divers 4;Challenge
AT1603-13;15/03/16;11/04/16;Challenge Whisky 4;Challenge
AT1603-14;15/03/16;11/04/16;Challenge Cognac 4;Challenge
AT1603-15;15/03/16;09/05/16;Challenge cigares 2;Challenge
AT1603-16;15/03/16;11/04/16;Challenge cigarillos 3;Challenge
AT1603-17;15/03/16;11/04/16;Mise en avant Classic tabac 2;Animation
AT1603-18;15/03/16;09/05/16;Mise en avant SPP tabac 2;Animation
AT1603-19;15/03/16;11/04/16;Glorifier Poland tabac 4;Animation
AT1603-20;15/03/16;11/04/16;Challenge Champ 4;Challenge
AT1603-21;15/03/16;28/03/16;Semaine d'anim/challenge GACO 6;Challenge/animation
AT1603-22;19/03/16;20/03/16;WE GACO 12;Week-end d'Animation
AT1603-23;26/03/16;27/03/16;WE GACO 13;Week-end d'Animation
AT1603-24;29/03/16;25/04/16;Gourmandises salées - Pains et tartinables;Enseigne
AT1603-25;29/03/16;11/04/16;Semaine d'anim/challenge GACO 7;Challenge/animation
AT1604-1;02/04/16;03/04/16;WE GACO 14;Week-end d'Animation
AT1604-2;09/04/16;10/04/16;WE GACO 15;Week-end d'Animation
AT1604-3;12/04/16;09/05/16;PROMO MENSUELLE 5;Opération ou challenge mktg champ
AT1604-4;12/04/16;09/05/16;Challenge Alcool divers 5;Challenge
AT1604-5;12/04/16;09/05/16;Challenge Whisky 5;Challenge
AT1604-6;12/04/16;09/05/16;Challenge Cognac 5;Challenge
AT1604-7;12/04/16;09/05/16;Challenge cigarillos 4;Challenge
AT1604-8;12/04/16;09/05/16;Mise en avant Classic tabac 3;Animation
AT1604-9;12/04/16;23/05/16;HPP France tabac 3;Animation
AT1604-10;12/04/16;23/05/16;HPP Italy tabac 3;Animation
AT1604-11;12/04/16;09/05/16;Glorifier Poland tabac 5;Animation
AT1604-12;12/04/16;09/05/16;Challenge Champ 5;Challenge
AT1604-13;12/04/16;06/06/16;Challenge Vin 3;Challenge
AT1604-14;12/04/16;25/04/16;Semaine d'anim/challenge GACO 8;Challenge/animation
AT1604-15;16/04/16;17/04/16;WE GACO 16;Week-end d'Animation
AT1604-16;23/04/16;24/04/16;WE GACO 17;Week-end d'Animation
AT1604-17;26/04/16;06/06/16;SDA French Riviera;French Riviera
AT1604-18;26/04/16;06/06/16;S4 French Riviera;French Riviera
AT1604-19;26/04/16;09/05/16;Valrhona - Chocolat;Marque
AT1604-20;26/04/16;09/05/16;Semaine d'anim/challenge GACO 9;Challenge/animation
AT1604-21;30/04/16;01/05/16;WE GACO 18;Week-end d'Animation
AT1605-1;07/05/16;08/05/16;WE GACO 19;Week-end d'Animation
AT1605-2;10/05/16;06/06/16;PROMO MENSUELLE 6;Opération ou challenge mktg champ
AT1605-3;10/05/16;04/07/16;PROMO INTER 4;Opération
AT1605-4;10/05/16;29/08/16;Promotions solaires;Nouvel An Chinois
AT1605-5;10/05/16;23/05/16;Alain Millat - Jus et Nectars;Marque
AT1605-6;10/05/16;06/06/16;Les Fées Pâtissières - Pâtisseries;Marque
AT1605-7;10/05/16;06/06/16;Challenge Alcool divers 6;Challenge
AT1605-8;10/05/16;06/06/16;Challenge Whisky 6;Challenge
AT1605-9;10/05/16;06/06/16;Challenge Cognac 6;Challenge
AT1605-10;10/05/16;04/07/16;Challenge cigares 3;Challenge
AT1605-11;10/05/16;06/06/16;Challenge cigarillos 5;Challenge
AT1605-12;10/05/16;06/06/16;Mise en avant Classic tabac 4;Animation
AT1605-13;10/05/16;04/07/16;Mise en avant SPP tabac 3;Animation
AT1605-14;10/05/16;06/06/16;Glorifier Poland tabac 6;Animation
AT1605-15;10/05/16;06/06/16;Challenge Champ 6;Challenge
AT1605-16;10/05/16;23/05/16;Semaine d'anim/challenge GACO 10;Challenge/animation
AT1605-17;14/05/16;15/05/16;WE GACO 20;Week-end d'Animation
AT1605-18;21/05/16;22/05/16;WE GACO 21;Week-end d'Animation
AT1605-19;24/05/16;06/06/16;Daniel Mercier - Biscuits;Marque
AT1605-20;24/05/16;04/07/16;HPP France tabac 4;Animation
AT1605-21;24/05/16;04/07/16;HPP Italy tabac 4;Animation
AT1605-22;24/05/16;06/06/16;Semaine d'anim/challenge GACO 11;Challenge/animation
AT1605-23;28/05/16;29/05/16;WE GACO 22;Week-end d'Animation
AT1606-1;04/06/16;05/06/16;WE GACO 23;Week-end d'Animation
AT1606-2;07/06/16;04/07/16;PROMO MENSUELLE 7;Opération ou challenge mktg champ
AT1606-3;07/06/16;04/07/16;SDA MSD été 1;Magic Super Deals été
AT1606-4;07/06/16;29/08/16;S4 MSD été;Magic Super Deals été
AT1606-5;07/06/16;20/06/16;Esprit Euro 2016 : (Targe) / Bleu blanc rouge / Plateaux TV (Euro2016);Enseigne
AT1606-6;07/06/16;04/07/16;Challenge Alcool divers 7;Challenge
AT1606-7;07/06/16;04/07/16;Challenge Whisky 7;Challenge
AT1606-8;07/06/16;04/07/16;Challenge Cognac 7;Challenge
AT1606-9;07/06/16;04/07/16;Challenge cigarillos 6;Challenge
AT1606-10;07/06/16;04/07/16;Mise en avant Classic tabac 5;Animation
AT1606-11;07/06/16;04/07/16;Glorifier Poland tabac 7;Animation
AT1606-12;07/06/16;04/07/16;Challenge Champ 7;Challenge
AT1606-13;07/06/16;04/07/16;Challenge Vin 4;Challenge
AT1606-14;07/06/16;20/06/16;Semaine d'anim/challenge GACO 12;Challenge/animation
AT1606-15;11/06/16;12/06/16;WE GACO 24;Week-end d'Animation
AT1606-16;18/06/16;19/06/16;WE GACO 25;Week-end d'Animation
AT1606-17;21/06/16;12/07/16;SDA Petit Aïd;Ramadan
AT1606-18;21/06/16;18/07/16;Provence - Première Pression Provence - Huiles,Tapenades etc... Salé et Sucré;Enseigne
AT1606-19;21/06/16;04/07/16;Semaine d'anim/challenge GACO 13;Challenge/animation
AT1606-20;25/06/16;26/06/16;WE GACO 26;Week-end d'Animation
AT1607-1;02/07/16;03/07/16;WE GACO 27;Week-end d'Animation
AT1607-2;05/07/16;01/08/16;PROMO MENSUELLE 8;Opération ou challenge mktg champ
AT1607-3;05/07/16;29/08/16;PROMO INTER 5;Opération
AT1607-4;05/07/16;01/08/16;SDA MSD été 2;Magic Super Deals été
AT1607-5;05/07/16;01/08/16;Challenge Alcool divers 8;Challenge
AT1607-6;05/07/16;01/08/16;Challenge Whisky 8;Challenge
AT1607-7;05/07/16;01/08/16;Challenge Cognac 8;Challenge
AT1607-8;05/07/16;29/08/16;Challenge cigares 4;Challenge
AT1607-9;05/07/16;01/08/16;Challenge cigarillos 7;Challenge
AT1607-10;05/07/16;01/08/16;Mise en avant Classic tabac 6;Animation
AT1607-11;05/07/16;29/08/16;Mise en avant SPP tabac 4;Animation
AT1607-12;05/07/16;15/08/16;HPP France tabac 5;Animation
AT1607-13;05/07/16;15/08/16;HPP Italy tabac 5;Animation
AT1607-14;05/07/16;01/08/16;Glorifier Poland tabac 8;Animation
AT1607-15;05/07/16;01/08/16;Challenge Champ 8;Challenge
AT1607-16;05/07/16;29/08/16;Challenge Vin 5;Challenge
AT1607-17;05/07/16;18/07/16;Semaine d'anim/challenge GACO 14;Challenge/animation
AT1607-18;09/07/16;10/07/16;WE GACO 28;Week-end d'Animation
AT1607-19;16/07/16;17/07/16;WE GACO 29;Week-end d'Animation
AT1607-20;19/07/16;01/08/16;Paris Plage (sélection 1) - Produits esprit pique-nique;Enseigne
AT1607-21;19/07/16;15/08/16;La Tarte Tropézienne - Pâtisseries;Marque
AT1607-22;19/07/16;01/08/16;Semaine d'anim/challenge GACO 15;Challenge/animation
AT1607-23;23/07/16;24/07/16;WE GACO 30;Week-end d'Animation
AT1607-24;30/07/16;31/07/16;WE GACO 31;Week-end d'Animation
AT1608-1;02/08/16;29/08/16;PROMO MENSUELLE 9;Opération ou challenge mktg champ
AT1608-2;02/08/16;29/08/16;SDA MSD été 3;Magic Super Deals été
AT1608-3;02/08/16;15/08/16;Paris Plage (sélection 2) - Produits esprit pique-nique;Enseigne
AT1608-4;02/08/16;29/08/16;Challenge Alcool divers 9;Challenge
AT1608-5;02/08/16;29/08/16;Challenge Whisky 9;Challenge
AT1608-6;02/08/16;29/08/16;Challenge Cognac 9;Challenge
AT1608-7;02/08/16;29/08/16;Challenge cigarillos 8;Challenge
AT1608-8;02/08/16;29/08/16;Mise en avant Classic tabac 7;Animation
AT1608-9;02/08/16;29/08/16;Glorifier Poland tabac 9;Animation
AT1608-10;02/08/16;29/08/16;Challenge Champ 9;Challenge
AT1608-11;02/08/16;15/08/16;Semaine d'anim/challenge GACO 16;Challenge/animation
AT1608-12;06/08/16;07/08/16;WE GACO 32;Week-end d'Animation
AT1608-13;13/08/16;14/08/16;WE GACO 33;Week-end d'Animation
AT1608-14;16/08/16;26/09/16;HPP France tabac 6;Animation
AT1608-15;16/08/16;26/09/16;HPP Italy tabac 6;Animation
AT1608-16;16/08/16;29/08/16;Semaine d'anim/challenge GACO 17;Challenge/animation
AT1608-17;20/08/16;21/08/16;WE GACO 34;Week-end d'Animation
AT1608-18;23/08/16;12/09/16;SDA Grand Aïd;Ramadan
AT1608-19;27/08/16;28/08/16;WE GACO 35;Week-end d'Animation
AT1608-20;30/08/16;26/09/16;PROMO MENSUELLE 10;Opération ou challenge mktg champ
AT1608-21;30/08/16;24/10/16;PROMO INTER 6;Opération
AT1608-22;30/08/16;24/10/16;SDA Gold;SDA Gold
AT1608-23;30/08/16;24/10/16;SDA FAV automne;FAV automne
AT1608-24;30/08/16;24/10/16;S4 Gold;Gold
AT1608-25;30/08/16;24/10/16;S4 FAV Gourmand automne;FAV automne
AT1608-26;30/08/16;26/09/16;Challenge Alcool divers 10;Challenge
AT1608-27;30/08/16;26/09/16;Challenge Whisky 10;Challenge
AT1608-28;30/08/16;26/09/16;Challenge Cognac 10;Challenge
AT1608-29;30/08/16;24/10/16;Challenge cigares 5;Challenge
AT1608-30;30/08/16;24/10/16;Challenge cigarillos 9;Challenge
AT1608-31;30/08/16;26/09/16;Mise en avant Classic tabac 8;Animation
AT1608-32;30/08/16;24/10/16;Mise en avant SPP tabac 5;Animation
AT1608-33;30/08/16;26/09/16;Glorifier Poland tabac 10;Animation
AT1608-34;30/08/16;26/09/16;Challenge Champ 10;Challenge
AT1608-35;30/08/16;24/10/16;Challenge Vin 6;Challenge
AT1608-36;30/08/16;12/09/16;Semaine d'anim/challenge GACO 18;Challenge/animation
AT1609-1;03/09/16;04/09/16;WE GACO 36;Week-end d'Animation
AT1609-2;10/09/16;11/09/16;WE GACO 37;Week-end d'Animation
AT1609-3;13/09/16;26/09/16;Semaine d'anim/challenge GACO 19;Challenge/animation
AT1609-4;17/09/16;18/09/16;WE GACO 38;Week-end d'Animation
AT1609-5;20/09/16;10/10/16;SDA Golden Week Chine;Golden Week
AT1609-6;24/09/16;25/09/16;WE GACO 39;Week-end d'Animation
AT1609-7;27/09/16;24/10/16;PROMO MENSUELLE 11;Opération ou challenge mktg champ
AT1609-8;27/09/16;24/10/16;Foire aux vins;Cherry Blossom
AT1609-9;27/09/16;24/10/16;Challenge Alcool divers 11;Challenge
AT1609-10;27/09/16;24/10/16;Challenge Whisky 11;Challenge
AT1609-11;27/09/16;24/10/16;Challenge Cognac 11;Challenge
AT1609-12;27/09/16;24/10/16;Mise en avant Classic tabac 9;Animation
AT1609-13;27/09/16;07/11/16;HPP France tabac 7;Animation
AT1609-14;27/09/16;07/11/16;HPP Italy tabac 7;Animation
AT1609-15;27/09/16;24/10/16;Glorifier Poland tabac 11;Animation
AT1609-16;27/09/16;24/10/16;Challenge Champ 11;Challenge
AT1609-17;27/09/16;10/10/16;Semaine d'anim/challenge GACO 20;Challenge/animation
AT1610-1;01/10/16;02/10/16;WE GACO 40;Week-end d'Animation
AT1610-2;08/10/16;09/10/16;WE GACO 41;Week-end d'Animation
AT1610-3;11/10/16;24/10/16;Semaine d'anim/challenge GACO 21;Challenge/animation
AT1610-4;15/10/16;16/10/16;WE GACO 42;Week-end d'Animation
AT1610-5;22/10/16;23/10/16;WE GACO 43;Week-end d'Animation
AT1610-6;25/10/16;21/11/16;PROMO MENSUELLE 12;Opération ou challenge mktg champ
AT1610-7;25/10/16;26/12/16;PROMO INTER 7;Opération
AT1610-8;25/10/16;26/12/16;SDA Noël;Noël
AT1610-9;25/10/16;21/11/16;SDA Foire aux cognacs;Foire aux cognacs
AT1610-10;25/10/16;26/12/16;S4 Noël;Noël
AT1610-11;25/10/16;21/11/16;Challenge Alcool divers 12;Challenge
AT1610-12;25/10/16;21/11/16;Challenge Whisky 12;Challenge
AT1610-13;25/10/16;21/11/16;Challenge Cognac 12;Challenge
AT1610-14;25/10/16;19/12/16;Challenge cigares 6;Challenge
AT1610-15;25/10/16;21/11/16;Challenge cigarillos 10;Challenge
AT1610-16;25/10/16;21/11/16;Mise en avant Classic tabac 10;Animation
AT1610-17;25/10/16;19/12/16;Mise en avant SPP tabac 6;Animation
AT1610-18;25/10/16;21/11/16;Glorifier Poland tabac 12;Animation
AT1610-19;25/10/16;21/11/16;Challenge Champ 12;Challenge
AT1610-20;25/10/16;19/12/16;Challenge Vin 7;Challenge
AT1610-21;25/10/16;07/11/16;Semaine d'anim/challenge GACO 22;Challenge/animation
AT1610-22;29/10/16;30/10/16;WE GACO 44;Week-end d'Animation
AT1611-1;05/11/16;06/11/16;WE GACO 45;Week-end d'Animation
AT1611-2;08/11/16;26/12/16;HPP France tabac 8;Animation
AT1611-3;08/11/16;26/12/16;HPP Italy tabac 8;Animation
AT1611-4;08/11/16;21/11/16;Semaine d'anim/challenge GACO 23;Challenge/animation
AT1611-5;12/11/16;13/11/16;WE GACO 46;Week-end d'Animation
AT1611-6;19/11/16;20/11/16;WE GACO 47;Week-end d'Animation
AT1611-7;22/11/16;26/12/16;PROMO MENSUELLE 13;Opération ou challenge mktg champ
AT1611-8;22/11/16;19/12/16;Challenge Alcool divers 13;Challenge
AT1611-9;22/11/16;19/12/16;Challenge Whisky 13;Challenge
AT1611-10;22/11/16;19/12/16;Challenge Cognac 13;Challenge
AT1611-11;22/11/16;19/12/16;Challenge cigarillos 11;Challenge
AT1611-12;22/11/16;19/12/16;Mise en avant Classic tabac 11;Animation
AT1611-13;22/11/16;26/12/16;Glorifier Poland tabac 13;Animation
AT1611-14;22/11/16;19/12/16;Challenge Champ 13;Challenge
AT1611-15;22/11/16;05/12/16;Semaine d'anim/challenge GACO 24;Challenge/animation
AT1611-16;26/11/16;27/11/16;WE GACO 48;Week-end d'Animation
AT1612-1;03/12/16;04/12/16;WE GACO 49;Week-end d'Animation
AT1612-2;06/12/16;19/12/16;Semaine d'anim/challenge GACO 25;Challenge/animation
AT1612-3;10/12/16;11/12/16;WE GACO 50;Week-end d'Animation
AT1612-4;17/12/16;18/12/16;WE GACO 51;Week-end d'Animation
AT1612-5;20/12/16;16/01/17;Mise en avant Classic tabac 12;Animation
AT1612-6;20/12/16;02/01/17;Semaine d'anim/challenge GACO 26;Challenge/animation
AT1612-7;24/12/16;25/12/16;WE GACO 52;Week-end d'Animation
AT1701-1;17/01/17;31/01/17;Mise en avant Classic tabac 13;Animation
