<?xml version="1.0" encoding="utf-8"?>
<!-- Generator: Avocode 2.4.5 - http://avocode.com -->
<svg height="11" width="12" xmlns:xlink="http://www.w3.org/1999/xlink" xmlns="http://www.w3.org/2000/svg" viewBox="0 0 12 11">
    <path stroke-linejoin="miter" stroke-linecap="butt" stroke-width="0.5" fill-rule="evenodd" d="M 1.48 7.1 L 1.48 1.57 L 9.99 4.33 L 1.48 7.1 Z M 10.99 4.29 C 10.99 4.28 10.99 4.27 10.99 4.26 C 10.99 4.25 10.98 4.25 10.98 4.24 C 10.97 4.23 10.97 4.22 10.96 4.2 C 10.95 4.19 10.94 4.18 10.93 4.17 C 10.92 4.16 10.91 4.15 10.89 4.14 C 10.88 4.13 10.87 4.12 10.85 4.12 C 10.85 4.11 10.84 4.11 10.84 4.11 L 1.31 1.01 C 1.3 1.01 1.29 1.01 1.28 1.01 C 1.26 1.01 1.25 1 1.24 1 C 1.23 1 1.23 1 1.23 1 C 1.21 1 1.2 1.01 1.18 1.01 C 1.17 1.02 1.15 1.02 1.14 1.02 C 1.12 1.03 1.11 1.04 1.1 1.05 C 1.09 1.06 1.08 1.07 1.07 1.08 C 1.06 1.09 1.05 1.1 1.04 1.11 C 1.03 1.13 1.02 1.14 1.02 1.16 C 1.02 1.16 1.01 1.16 1.01 1.16 C 1.01 1.18 1.01 1.19 1.01 1.2 C 1.01 1.21 1 1.22 1 1.24 L 1 10.76 C 1 10.89 1.11 11 1.24 11 C 1.37 11 1.48 10.89 1.48 10.76 L 1.48 7.6 L 10.84 4.56 C 10.84 4.56 10.84 4.56 10.84 4.56 C 10.86 4.55 10.89 4.54 10.91 4.52 C 10.92 4.51 10.92 4.5 10.93 4.5 C 10.94 4.48 10.95 4.47 10.96 4.45 C 10.97 4.44 10.97 4.44 10.98 4.43 C 10.98 4.42 10.99 4.41 10.99 4.41 C 10.99 4.4 10.99 4.39 10.99 4.38 C 11 4.36 11 4.35 11 4.33 C 11 4.32 11 4.3 10.99 4.29 L 10.99 4.29 Z M 10.99 4.29" />
</svg>
