<?xml version="1.0" encoding="utf-8"?>
<!-- Generator: Avocode 2.4.5 - http://avocode.com -->
<svg height="20" width="20" xmlns:xlink="http://www.w3.org/1999/xlink" xmlns="http://www.w3.org/2000/svg" viewBox="0 0 20 20">
    <path stroke-linejoin="miter" stroke-linecap="butt" stroke-width="0.5" fill-rule="evenodd" d="M 15.49 13.52 L 15.76 13.79 C 16.3 14.33 16.3 15.21 15.76 15.76 C 15.49 16.02 15.14 16.17 14.77 16.17 C 14.4 16.17 14.05 16.02 13.79 15.76 L 13.52 15.49 C 13.35 15.32 13.13 15.24 12.91 15.24 C 12.78 15.24 12.66 15.26 12.54 15.32 C 12.35 15.41 12.16 15.49 11.96 15.56 C 11.62 15.68 11.39 16 11.39 16.37 L 11.39 16.75 C 11.39 17.52 10.77 18.14 10 18.14 C 9.23 18.14 8.61 17.52 8.61 16.75 L 8.61 16.37 C 8.61 16 8.38 15.68 8.04 15.56 C 7.84 15.49 7.65 15.41 7.46 15.32 C 7.34 15.26 7.22 15.24 7.09 15.24 C 6.87 15.24 6.65 15.32 6.48 15.49 L 6.21 15.76 C 5.95 16.02 5.6 16.17 5.23 16.17 C 4.86 16.17 4.5 16.02 4.24 15.76 C 3.7 15.21 3.7 14.33 4.24 13.79 L 4.51 13.52 C 4.77 13.26 4.84 12.87 4.68 12.54 C 4.59 12.35 4.51 12.16 4.44 11.96 C 4.32 11.62 4 11.39 3.63 11.39 L 3.25 11.39 C 2.48 11.39 1.86 10.77 1.86 10 C 1.86 9.23 2.48 8.61 3.25 8.61 L 3.63 8.61 C 4 8.61 4.32 8.38 4.44 8.04 C 4.51 7.84 4.59 7.65 4.68 7.46 C 4.84 7.13 4.77 6.74 4.51 6.48 L 4.24 6.21 C 3.7 5.67 3.7 4.79 4.24 4.24 C 4.5 3.98 4.86 3.83 5.23 3.83 C 5.6 3.83 5.95 3.98 6.21 4.24 L 6.48 4.51 C 6.65 4.68 6.87 4.77 7.09 4.77 C 7.22 4.77 7.34 4.74 7.46 4.68 C 7.65 4.59 7.84 4.51 8.04 4.44 C 8.38 4.32 8.61 4 8.61 3.63 L 8.61 3.25 C 8.61 2.48 9.23 1.86 10 1.86 C 10.77 1.86 11.39 2.48 11.39 3.25 L 11.39 3.63 C 11.39 4 11.62 4.32 11.96 4.44 C 12.16 4.51 12.35 4.59 12.54 4.68 C 12.66 4.74 12.78 4.77 12.91 4.77 C 13.13 4.77 13.35 4.68 13.52 4.51 L 13.79 4.24 C 14.05 3.98 14.4 3.83 14.77 3.83 C 15.14 3.83 15.49 3.98 15.76 4.24 C 16.3 4.79 16.3 5.67 15.76 6.21 L 15.49 6.48 C 15.23 6.74 15.16 7.13 15.32 7.46 C 15.41 7.65 15.49 7.84 15.56 8.04 C 15.68 8.38 16 8.61 16.37 8.61 L 16.75 8.61 C 17.52 8.61 18.14 9.23 18.14 10 C 18.14 10.77 17.52 11.39 16.75 11.39 L 16.37 11.39 C 16 11.39 15.68 11.62 15.56 11.96 C 15.49 12.16 15.41 12.35 15.32 12.54 C 15.16 12.87 15.23 13.26 15.49 13.52 L 15.49 13.52 Z M 16.75 12.25 C 17.99 12.25 19 11.24 19 10 C 19 8.76 17.99 7.75 16.75 7.75 L 16.37 7.75 C 16.29 7.52 16.19 7.3 16.09 7.09 L 16.36 6.82 C 17.24 5.94 17.24 4.51 16.36 3.64 C 15.92 3.2 15.35 2.98 14.77 2.98 C 14.2 2.98 13.62 3.2 13.18 3.64 L 12.91 3.91 C 12.7 3.81 12.48 3.71 12.25 3.63 L 12.25 3.25 C 12.25 2.01 11.24 1 10 1 C 8.76 1 7.75 2.01 7.75 3.25 L 7.75 3.63 C 7.52 3.71 7.3 3.81 7.09 3.91 L 6.82 3.64 C 6.38 3.2 5.8 2.98 5.23 2.98 C 4.65 2.98 4.08 3.2 3.64 3.64 C 2.76 4.51 2.76 5.94 3.64 6.82 L 3.91 7.09 C 3.81 7.3 3.71 7.52 3.63 7.75 L 3.25 7.75 C 2.01 7.75 1 8.76 1 10 C 1 11.24 2.01 12.25 3.25 12.25 L 3.63 12.25 C 3.71 12.48 3.81 12.7 3.91 12.91 L 3.64 13.18 C 2.76 14.06 2.76 15.49 3.64 16.36 C 4.08 16.8 4.65 17.02 5.23 17.02 C 5.8 17.02 6.38 16.8 6.82 16.36 L 7.09 16.09 C 7.3 16.19 7.52 16.29 7.75 16.37 L 7.75 16.75 C 7.75 17.99 8.76 19 10 19 C 11.24 19 12.25 17.99 12.25 16.75 L 12.25 16.37 C 12.48 16.29 12.7 16.19 12.91 16.09 L 13.18 16.36 C 13.62 16.8 14.2 17.02 14.77 17.02 C 15.35 17.02 15.92 16.8 16.36 16.36 C 17.24 15.49 17.24 14.06 16.36 13.18 L 16.09 12.91 C 16.19 12.7 16.29 12.48 16.37 12.25 L 16.75 12.25 Z M 10 12.14 C 8.82 12.14 7.86 11.18 7.86 10 C 7.86 8.82 8.82 7.86 10 7.86 C 11.18 7.86 12.14 8.82 12.14 10 C 12.14 11.18 11.18 12.14 10 12.14 Z M 10 7 C 8.35 7 7 8.35 7 10 C 7 11.65 8.35 13 10 13 C 11.65 13 13 11.65 13 10 C 13 8.35 11.65 7 10 7" />
</svg>
